AXI_WS2812x_Driver_v1_0_S00_AXI.vhd,vhdl,xil_defaultlib,../../../../AXI_WS2812x_Driver_0/hdl/AXI_WS2812x_Driver_v1_0_S00_AXI.vhd,
WS2812x.vhd,vhdl,xil_defaultlib,../../../../AXI_WS2812x_Driver_0/hdl/WS2812x.vhd,
AXI_WS2812x_Driver_v1_0.vhd,vhdl,xil_defaultlib,../../../../AXI_WS2812x_Driver_0/hdl/AXI_WS2812x_Driver_v1_0.vhd,
AXI_WS2812x_Driver_0.vhd,vhdl,xil_defaultlib,../../../../AXI_WS2812x_Driver_0/sim/AXI_WS2812x_Driver_0.vhd,
